{
  "en": {
    "Menu": {
      "dashboard": "Dashboard",
      "courses": "Courses",
      "logOutBtn": "Log Out"
    },
    "NotFoundPage": {
      "goRootBtn": "Go to Main page"
    },
    "CoursesPage": {
      "addCourseBtn": "Add new course",
      "newTitle": "New course title",
      "newDescription": "New course description"
    },
    "CoursePage": {
      "breadcrumbs": {
        "courses": "Courses",
        "course": "Course"
      },
      "title": "Title",
      "description": "Description",
      "lessons": "Lessons",
      "newTitle": "New lesson title",
      "newDescription": "New lesson description",
      "addLessonBtn": "Add new lesson",
      "saveBtn": "Save",
      "deleteBtn": "Delete course"
    },
    "LessonPage": {
      "breadcrumbs": {
        "courses": "Courses",
        "course": "Course",
        "lesson": "Lesson"
      },
      "title": "Title",
      "description": "Description",
      "contents": "Contents",
      "newContent": "Some content...",
      "addContentBtn": "Add new content",
      "saveBtn": "Save",
      "deleteLessonBtn": "Delete lesson",
      "deleteContentBtn": "Delete content"
    }
  },
  "uk": {
    "Menu": {
      "dashboard": "Управління курсами",
      "courses": "Курси",
      "logOutBtn": "Вихід"
    },
    "NotFoundPage": {
      "goRootBtn": "На головну сторінку"
    },
    "CoursesPage": {
      "addCourseBtn": "Створити новий курс",
      "newTitle": "Новий курс",
      "newDescription": "Опис нового курсу"
    },
    "CoursePage": {
      "breadcrumbs": {
        "courses": "Курси",
        "course": "Курс"
      },
      "title": "Назва",
      "description": "Опис",
      "lessons": "Уроки",
      "newTitle": "Новий курс",
      "newDescription": "Опис нового курсу...",
      "addLessonBtn": "Створити новий урок",
      "saveBtn": "Зберегти",
      "deleteBtn": "Видалати курс"
    },
    "LessonPage": {
      "breadcrumbs": {
        "courses": "Курси",
        "course": "Курс",
        "lesson": "Урок"
      },
      "title": "Назва",
      "description": "Опис",
      "contents": "Контент",
      "newContent": "Деякий контент...",
      "addContentBtn": "Додати новий контент",
      "saveBtn": "Зберегти",
      "deleteLessonBtn": "Видалити урок",
      "deleteContentBtn": "Видалити контент"
    }
  },
  "ru": {
    "Menu": {
      "dashboard": "Управление курсами",
      "courses": "Курсы",
      "logOutBtn": "Выход"
    },
    "NotFoundPage": {
      "goRootBtn": "На главную страницу"
    },
    "CoursesPage": {
      "addCourseBtn": "Создать новый курс",
      "newTitle": "Новый курс",
      "newDescription": "Описание нового курса"
    },
    "CoursePage": {
      "breadcrumbs": {
        "courses": "Курсы",
        "course": "Курс"
      },
      "title": "Название",
      "description": "Описание",
      "lessons": "Уроки",
      "newTitle": "Название нового урока",
      "newDescription": "Описание нового урока",
      "addLessonBtn": "Создать новый урок",
      "saveBtn": "Сохранить",
      "deleteBtn": "Удалить курс"
    },
    "LessonPage": {
      "breadcrumbs": {
        "courses": "Курсы",
        "course": "Курс",
        "lesson": "Урок"
      },
      "title": "Название",
      "description": "Описание",
      "contents": "Контент",
      "newContent": "Какой-то контент...",
      "addContentBtn": "Добавить новый контент",
      "saveBtn": "Сохранить",
      "deleteLessonBtn": "Удалить урок",
      "deleteContentBtn": "Удалить контент"
    }
  }
}